%YAML 1.1
%TAG !u! tag:unity3d.com,2011:
--- !u!114 &11400000
MonoBehaviour:
  m_ObjectHideFlags: 0
  m_PrefabParentObject: {fileID: 0}
  m_PrefabInternal: {fileID: 0}
  m_GameObject: {fileID: 0}
  m_Enabled: 1
  m_EditorHideFlags: 0
  m_Script: {fileID: 11500000, guid: 78b9180fe055fde4b8ed15f89307908e, type: 3}
  m_Name: Good-Gold
  m_EditorClassIdentifier: 
  Name: Gold
  Image: {fileID: 21300000, guid: 764246d979eb20b43ad363ce9b3b7204, type: 3}
  Type: 0
