%YAML 1.1
%TAG !u! tag:unity3d.com,2011:
--- !u!114 &11400000
MonoBehaviour:
  m_ObjectHideFlags: 0
  m_PrefabParentObject: {fileID: 0}
  m_PrefabInternal: {fileID: 0}
  m_GameObject: {fileID: 0}
  m_Enabled: 1
  m_EditorHideFlags: 0
  m_Script: {fileID: 11500000, guid: 78b9180fe055fde4b8ed15f89307908e, type: 3}
  m_Name: Good-5
  m_EditorClassIdentifier: 
  Name: Food
  Image: {fileID: 21300000, guid: 1c8c9fe8e1038de4faee11adeb26301b, type: 3}
  Type: 6
  FortuneMultiplication: 2
