%YAML 1.1
%TAG !u! tag:unity3d.com,2011:
--- !u!114 &11400000
MonoBehaviour:
  m_ObjectHideFlags: 0
  m_CorrespondingSourceObject: {fileID: 0}
  m_PrefabInstance: {fileID: 0}
  m_PrefabAsset: {fileID: 0}
  m_GameObject: {fileID: 0}
  m_Enabled: 1
  m_EditorHideFlags: 0
  m_Script: {fileID: 11500000, guid: 1702ace38531e6f47b9771531f9fabb4, type: 3}
  m_Name: LogyConfig
  m_EditorClassIdentifier: 
  serializationData:
    SerializedFormat: 2
    SerializedBytes: 
    ReferencedUnityObjects: []
    SerializedBytesString: 
    Prefab: {fileID: 0}
    PrefabModificationsReferencedUnityObjects: []
    PrefabModifications: []
    SerializationNodes:
    - Name: defColor
      Entry: 7
      Data: UnityEngine.Color, UnityEngine.CoreModule
    - Name: 
      Entry: 4
      Data: 1
    - Name: 
      Entry: 4
      Data: 1
    - Name: 
      Entry: 4
      Data: 1
    - Name: 
      Entry: 4
      Data: 1
    - Name: 
      Entry: 8
      Data: 
  <EnableLogs>k__BackingField: 1
  <EnableLogErrors>k__BackingField: 1
  MaxVisibleCmdCount: 200
  TruncateStringLength: 5000
  ThreadedLogs: 0
  UnhandledException: 1
  ErrorColor: {r: 1, g: 0.5, b: 0, a: 1}
  ExceptionColor: {r: 1, g: 0, b: 0, a: 1}
  WarningColor: {r: 1, g: 1, b: 0, a: 1}
  AssertColor: {r: 0.1, g: 0.1, b: 1, a: 1}
