%YAML 1.1
%TAG !u! tag:unity3d.com,2011:
--- !u!114 &11400000
MonoBehaviour:
  m_ObjectHideFlags: 0
  m_CorrespondingSourceObject: {fileID: 0}
  m_PrefabInstance: {fileID: 0}
  m_PrefabAsset: {fileID: 0}
  m_GameObject: {fileID: 0}
  m_Enabled: 1
  m_EditorHideFlags: 0
  m_Script: {fileID: 11500000, guid: 03b1925a463479f4eaadc47d6029917d, type: 3}
  m_Name: AchievementList
  m_EditorClassIdentifier: 
  serializationData:
    SerializedFormat: 2
    SerializedBytes: 
    ReferencedUnityObjects: []
    SerializedBytesString: 
    Prefab: {fileID: 0}
    PrefabModificationsReferencedUnityObjects: []
    PrefabModifications: []
    SerializationNodes: []
  Achievements:
  - Name: FirstPlaying
    CloudOnceId: 
    GooglePlayId: CgkIy5-o39UEEAIQAg
    GameCenterId: 
    GameJoltId: 0
  - Name: PirateHunter
    CloudOnceId: 
    GooglePlayId: CgkIy5-o39UEEAIQBg
    GameCenterId: 
    GameJoltId: 0
  - Name: TreasureHunter
    CloudOnceId: 
    GooglePlayId: CgkIy5-o39UEEAIQCA
    GameCenterId: 
    GameJoltId: 0
  - Name: MostPowerfull
    CloudOnceId: 
    GooglePlayId: CgkIy5-o39UEEAIQCQ
    GameCenterId: 
    GameJoltId: 0
  - Name: GoldenShip
    CloudOnceId: 
    GooglePlayId: CgkIy5-o39UEEAIQCg
    GameCenterId: 
    GameJoltId: 0
  - Name: PassedSeasons
    CloudOnceId: 
    GooglePlayId: CgkIy5-o39UEEAIQCw
    GameCenterId: 
    GameJoltId: 0
  - Name: Revenge
    CloudOnceId: 
    GooglePlayId: CgkIy5-o39UEEAIQDA
    GameCenterId: 
    GameJoltId: 0
  - Name: Share
    CloudOnceId: 
    GooglePlayId: CgkIy5-o39UEEAIQDQ
    GameCenterId: 
    GameJoltId: 0
  - Name: Play3Days
    CloudOnceId: 
    GooglePlayId: CgkIy5-o39UEEAIQDg
    GameCenterId: 
    GameJoltId: 0
  - Name: Play7Days
    CloudOnceId: 
    GooglePlayId: CgkIy5-o39UEEAIQDw
    GameCenterId: 
    GameJoltId: 0
