{
  "project_info": {
    "project_number": "160455856075",
    "firebase_url": "https://sea-treasure-pirate-run-692.firebaseio.com",
    "project_id": "sea-treasure---pirate-run-692",
    "storage_bucket": "sea-treasure---pirate-run-692.appspot.com"
  },
  "client": [
    {
      "client_info": {
        "mobilesdk_app_id": "1:160455856075:android:e9e087673475c2ad",
        "android_client_info": {
          "package_name": "com.bilalarikan.stpr"
        }
      },
      "oauth_client": [
        {
          "client_id": "160455856075-31154nt8n9a24sv62c935n1qr3s27jrm.apps.googleusercontent.com",
          "client_type": 3
        }
      ],
      "api_key": [
        {
          "current_key": "AIzaSyAbo39IXdRUs6YOMTB2vKoG-MbFnn6UkOg"
        }
      ],
      "services": {
        "analytics_service": {
          "status": 1
        },
        "appinvite_service": {
          "status": 2,
          "other_platform_oauth_client": [
            {
              "client_id": "160455856075-31154nt8n9a24sv62c935n1qr3s27jrm.apps.googleusercontent.com",
              "client_type": 3
            }
          ]
        },
        "ads_service": {
          "status": 2
        }
      }
    }
  ],
  "configuration_version": "1"
}